[
{
    "model": "accounts.user",
    "fields": {
        "password": "pbkdf2_sha256$36000$2VPTprMJlO43$0WgXr4pjSEL2hgcckcB+QLLiyoAFxxA1yTHR1XnHBwc=",
        "last_login": "2018-05-11T16:46:50.971Z",
        "is_superuser": false,
        "full_name": "Wade Watts",
        "email": "parzival@oasis.net",
        "phone": "2348035082026",
        "is_active": true,
        "date_joined": "2018-05-11T16:46:50.924Z",
        "status": 1,
        "groups": [],
        "user_permissions": []
    }
}
]
